{
  "config": {
    "flow_title": "Electrolux Wellbeing",
    "step": {
      "user": {
        "title": "Electrolux Wellbeing",
        "description": "[%key:common::config_flow::description%]",
        "data": {
          "email": "[%key:common::config_flow::data::email%]",
          "password": "[%key:common::config_flow::data::password%]",
          "client_secret": "[%key:common::config_flow::data::client_secret%]"
        }
      }
    },
    "abort": {
      "invalid_auth": "[%key:common::config_flow::abort::invalid_auth%]",
      "cannot_connect": "[%key:common::config_flow::abort::cannot_connect%]"
    },
    "error": {
      "invalid_auth": "[%key:common::config_flow::error::invalid_auth%]"
    }
  }
}
